Stat 480 - Homework #6
…
reorder the remaining neighborhoods according to the mean sales prices.

the calculation based on the price of lot area per square foot

housing %>% 
  mutate(ppf=SalePrice/LotArea) %>% #introduce new variable price per square foot
  group_by(Neighborhood) %>% #group by neighborhood
  summarise(average_per_square=mean(ppf), 
            records=n(),
            mean_sale_price=mean(SalePrice)) %>% 
  filter(records>=10) %>%  #filter the summary that has equal or more than 10 records
  arrange(desc(mean_sale_price)) #arrange the list based on mean sale price

## # A tibble: 27 x 4
##    Neighborhood average_per_square records mean_sale_price
##    <fct>                     <dbl>   <int>           <dbl>
##  1 NridgHt                    32.3      68         309310.
##  2 NoRidge                    25.1      38         304398.
##  3 StoneBr                    35.3      20         272820 
##  4 Timber                     20.3      34         247875.
##  5 Somerst                    42.2      85         226026 
##  6 ClearCr                    15.5      26         220609.
##  7 GrnHill                    27.6      22         209114.
##  8 Crawfor                    21.4      47         208341.
##  9 CollgCr                    21.3     145         199263.
## 10 NW Ames                    17.6      74         198331.
## # ... with 17 more rows

As we can see Nridght has the highest sale price per square foot.

the calculation based on the price of living area per square foot

housing %>% 
  mutate(ppf=SalePrice/LivingArea) %>% 
  group_by(Neighborhood) %>% 
  summarise(average_per_square=mean(ppf),
            records=n(),
            mean_sale_price=mean(SalePrice)) %>% 
  filter(records>=10) %>% 
  arrange(desc(mean_sale_price))

## # A tibble: 27 x 4
##    Neighborhood average_per_square records mean_sale_price
##    <fct>                     <dbl>   <int>           <dbl>
##  1 NridgHt                    164.      68         309310.
##  2 NoRidge                    133.      38         304398.
##  3 StoneBr                    156.      20         272820 
##  4 Timber                     148.      34         247875.
##  5 Somerst                    140.      85         226026 
##  6 ClearCr                    132.      26         220609.
##  7 GrnHill                    183.      22         209114.
##  8 Crawfor                    121.      47         208341.
##  9 CollgCr                    139.     145         199263.
## 10 NW Ames                    115.      74         198331.
## # ... with 17 more rows
…
